Bees
…
colony <- readr::read_csv('https://raw.githubusercontent.com/rfordatascience/tidytuesday/master/data/2022/2022-01-11/colony.csv')

Rows: 1222 Columns: 10
── Column specification ────────────────────────────────────────────────────────
Delimiter: ","
chr (2): months, state
dbl (8): year, colony_n, colony_max, colony_lost, colony_lost_pct, colony_ad...

ℹ Use `spec()` to retrieve the full column specification for this data.
ℹ Specify the column types or set `show_col_types = FALSE` to quiet this message.

colony

# A tibble: 1,222 × 10
    year months        state     colony_n colony_max colony_lost colony_lost_pct
   <dbl> <chr>         <chr>        <dbl>      <dbl>       <dbl>           <dbl>
 1  2015 January-March Alabama       7000       7000        1800              26
 2  2015 January-March Arizona      35000      35000        4600              13
 3  2015 January-March Arkansas     13000      14000        1500              11
 4  2015 January-March Californ…  1440000    1690000      255000              15
 5  2015 January-March Colorado      3500      12500        1500              12
 6  2015 January-March Connecti…     3900       3900         870              22
 7  2015 January-March Florida     305000     315000       42000              13
 8  2015 January-March Georgia     104000     105000       14500              14
 9  2015 January-March Hawaii       10500      10500         380               4
10  2015 January-March Idaho        81000      88000        3700               4
# ℹ 1,212 more rows
# ℹ 3 more variables: colony_added <dbl>, colony_reno <dbl>,
#   colony_reno_pct <dbl>

Number of Bees by year in US

colony |>
  filter(state == "United States")

# A tibble: 26 × 10
    year months           state  colony_n colony_max colony_lost colony_lost_pct
   <dbl> <chr>            <chr>     <dbl>      <dbl>       <dbl>           <dbl>
 1  2015 January-March    Unite…  2824610         NA      500020              18
 2  2015 April-June       Unite…  2849500         NA      352860              12
 3  2015 July-September   Unite…  3132880         NA      457100              15
 4  2015 October-December Unite…  2874760         NA      412380              14
 5  2016 January-March    Unite…  2594590         NA      428800              17
 6  2016 April-June       Unite…  2801470         NA      329820              12
 7  2016 July-September   Unite…  3181180         NA      397290              12
 8  2016 October-December Unite…  3032060         NA      502350              17
 9  2017 January-March    Unite…  2615590         NA      361850              14
10  2017 April-June       Unite…  2886030         NA      225680               8
# ℹ 16 more rows
# ℹ 3 more variables: colony_added <dbl>, colony_reno <dbl>,
#   colony_reno_pct <dbl>
…
## Change plot type so it can show useful information, maybe a box plot

Lost of bees colonies and colonies added

colony |>
  filter(year == 2020) |>
  select(year, colony_max)

# A tibble: 188 × 2
    year colony_max
   <dbl>      <dbl>
 1  2020       8000
 2  2020      32000
 3  2020      17500
 4  2020    1710000
 5  2020      16000
 6  2020       4100
 7  2020     310000
 8  2020     121000
 9  2020      16000
10  2020     168000
# ℹ 178 more rows
…
origins_lost <- readr::read_csv('https://raw.githubusercontent.com/rfordatascience/tidytuesday/master/data/2022/2022-01-11/stressor.csv')

Rows: 7332 Columns: 5
── Column specification ────────────────────────────────────────────────────────
Delimiter: ","
chr (3): months, state, stressor
dbl (2): year, stress_pct

ℹ Use `spec()` to retrieve the full column specification for this data.
ℹ Specify the column types or set `show_col_types = FALSE` to quiet this message.

origins_lost

# A tibble: 7,332 × 5
    year months        state   stressor              stress_pct
   <dbl> <chr>         <chr>   <chr>                      <dbl>
 1  2015 January-March Alabama Varroa mites                10  
 2  2015 January-March Alabama Other pests/parasites        5.4
 3  2015 January-March Alabama Disesases                   NA  
 4  2015 January-March Alabama Pesticides                   2.2
 5  2015 January-March Alabama Other                        9.1
 6  2015 January-March Alabama Unknown                      9.4
 7  2015 January-March Arizona Varroa mites                26.9
 8  2015 January-March Arizona Other pests/parasites       20.5
 9  2015 January-March Arizona Disesases                    0.1
10  2015 January-March Arizona Pesticides                  NA  
# ℹ 7,322 more rows
…
usa <- read_csv('data/states.csv')

Rows: 52 Columns: 4

── Column specification ────────────────────────────────────────────────────────
Delimiter: ","
chr (2): code, state
dbl (2): latitude, longitude

ℹ Use `spec()` to retrieve the full column specification for this data.
ℹ Specify the column types or set `show_col_types = FALSE` to quiet this message.

usa

# A tibble: 52 × 4
   code  latitude longitude state               
   <chr>    <dbl>     <dbl> <chr>               
 1 AK        63.6    -154.  Alaska              
 2 AL        32.3     -86.9 Alabama             
 3 AR        35.2     -91.8 Arkansas            
 4 AZ        34.0    -111.  Arizona             
 5 CA        36.8    -119.  California          
 6 CO        39.6    -106.  Colorado            
 7 CT        41.6     -73.1 Connecticut         
 8 DC        38.9     -77.0 District of Columbia
 9 DE        38.9     -75.5 Delaware            
10 FL        27.7     -81.5 Florida             
# ℹ 42 more rows
…
colonies_percent <- colony |>
  select(state, colony_n, colony_lost_pct, colony_reno_pct) |>
  group_by(state) |>
  summarise(
    colony_total = round(mean(colony_n, na.rm = TRUE)),
    lost_pct = round(mean(colony_lost_pct, na.rm = TRUE)),
    added_pct = round(mean(colony_reno_pct, na.rm = TRUE))) |>
    inner_join(usa, join_by(state == state))

colonies_percent

# A tibble: 45 × 7
   state       colony_total lost_pct added_pct code  latitude longitude
   <chr>              <dbl>    <dbl>     <dbl> <chr>    <dbl>     <dbl>
 1 Alabama             7900       15         8 AL        32.3     -86.9
 2 Arizona            28260       18        12 AZ        34.0    -111. 
 3 Arkansas           21580       15         8 AR        35.2     -91.8
 4 California        940400       11        11 CA        36.8    -119. 
 5 Colorado           19580       14         9 CO        39.6    -106. 
 6 Connecticut         3516        7         6 CT        41.6     -73.1
 7 Florida           244480       13        11 FL        27.7     -81.5
 8 Georgia           122680       13        14 GA        32.2     -82.9
 9 Hawaii             15480        5        15 HI        19.9    -156. 
10 Idaho              96680       10        11 ID        44.1    -115. 
# ℹ 35 more rows

colonies_max

# A tibble: 45 × 7
   state      colony_total colony_lost_t colony_added_t code  latitude longitude
   <chr>             <dbl>         <dbl>          <dbl> <chr>    <dbl>     <dbl>
 1 Alabama          197500         32710          28070 AL        32.3     -86.9
 2 Arizona          706500        132300         134590 AZ        34.0    -111. 
 3 Arkansas         539500         84300          79660 AR        35.2     -91.8
 4 California     23510000       3456000        3311000 CA        36.8    -119. 
 5 Colorado         489500         94080          66900 CO        39.6    -106. 
 6 Connectic…        87900          6450           9120 CT        41.6     -73.1
 7 Florida         6112000        877000        1140000 FL        27.7     -81.5
 8 Georgia         3067000        427000         528200 GA        32.2     -82.9
 9 Hawaii           387000         20830          27120 HI        19.9    -156. 
10 Idaho           2417000        318000         276800 ID        44.1    -115. 
# ℹ 35 more rows

library(sf)

Linking to GEOS 3.11.2, GDAL 3.6.2, PROJ 9.2.0; sf_use_s2() is TRUE

library(mapview)
colonies_max 

# A tibble: 45 × 7
   state      colony_total colony_lost_t colony_added_t code  latitude longitude
   <chr>             <dbl>         <dbl>          <dbl> <chr>    <dbl>     <dbl>
 1 Alabama          197500         32710          28070 AL        32.3     -86.9
 2 Arizona          706500        132300         134590 AZ        34.0    -111. 
 3 Arkansas         539500         84300          79660 AR        35.2     -91.8
 4 California     23510000       3456000        3311000 CA        36.8    -119. 
 5 Colorado         489500         94080          66900 CO        39.6    -106. 
 6 Connectic…        87900          6450           9120 CT        41.6     -73.1
 7 Florida         6112000        877000        1140000 FL        27.7     -81.5
 8 Georgia         3067000        427000         528200 GA        32.2     -82.9
 9 Hawaii           387000         20830          27120 HI        19.9    -156. 
10 Idaho           2417000        318000         276800 ID        44.1    -115. 
# ℹ 35 more rows
…
